Aid analysis improved
…
aid_data_csv <- read_csv(here('data_raw', 'World Wide Aid.csv')) %>%
    clean_names()
# glimpse(aid_data_csv)

aid_csv <- aid_data_csv %>%
    select(countries, announcement_date, total) %>%
    mutate(total = parse_number(total),
        date = mdy(announcement_date)) %>%
    filter(!is.na(date) & !is.na(total)) %>%
    mutate(aid_inter = date - min(date)) %>%
    select(-announcement_date)
aid_csv

#> # A tibble: 805 × 4
#>    countries    total date       aid_inter
#>    <chr>        <dbl> <date>     <drtn>   
#>  1 Australia 35000000 2022-03-01  34 days 
#>  2 Australia 32600000 2022-03-20  53 days 
#>  3 Australia 12000000 2022-03-20  53 days 
#>  4 Australia 27000000 2022-10-25 272 days 
#>  5 Australia 10000000 2023-06-26 516 days 
#>  6 Australia 70000000 2022-03-01  34 days 
#>  7 Australia 21000000 2022-03-20  53 days 
#>  8 Australia 25000000 2022-03-31  64 days 
#>  9 Australia 49000000 2022-04-08  72 days 
#> 10 Australia 26500000 2022-04-08  72 days 
#> # ℹ 795 more rows
…
    arrange(countries, date) %>%
    fill(total, .direction = 'down') %>%
    mutate(cuml_tot = cumsum(total)) %>%
    ungroup() %>%
    group_by(date) %>%
    mutate(
        rank = rank(-cuml_tot, ties.method = "first"),
        val_lbl = paste0(" ", round(cuml_tot / 10^6))
    ) %>%
    filter(rank <= 10) %>%
    ungroup() %>%
    mutate(war_day = as.integer(date - min(date)))
aid_group

#> # A tibble: 8,200 × 7
#>    countries date       total cuml_tot  rank val_lbl war_day
#>    <chr>     <date>     <dbl>    <dbl> <int> <chr>     <int>
#>  1 Australia 2022-01-26     0        0     5 " 0"          0
#>  2 Australia 2022-01-27     0        0     2 " 0"          1
#>  3 Australia 2022-01-28     0        0     2 " 0"          2
#>  4 Australia 2022-01-29     0        0     2 " 0"          3
#>  5 Australia 2022-01-30     0        0     2 " 0"          4
#>  6 Australia 2022-01-31     0        0     2 " 0"          5
#>  7 Australia 2022-02-01     0        0     6 " 0"          6
#>  8 Australia 2022-02-02     0        0     3 " 0"          7
#>  9 Australia 2022-02-03     0        0     3 " 0"          8
#> 10 Australia 2022-02-04     0        0     3 " 0"          9
#> # ℹ 8,190 more rows
…
